{
    "includeGeoTags": [
        "_Sim", 
        "_Cloth", 
        "_VFX", 
        "_col", 
        "_Vfx", 
        "_Col", 
        "_collision", 
        "_COLLISION", 
        "_Collision", 
        "_CLOTH", 
        "_cloth", 
        "_SIM", 
        "_vfx", 
        "_COL", 
        "_sim"
    ]
}