{
	"BaseFolder_Comp":
	{
	"concreteFolderType":"productionStep_rootfolder",
	"abstractFolderType":"rootFolder",
	"folderFunction":"grouping",
	"folderConcreteFunction":"",
	"placeholder":true,
	"$SEQ_##":
		{
		"abstractFolderType":"subfolder",
		"concreteFolderType":"sequence_subfolder",
		"folderFunction":"grouping",
		"folderConcreteFunction":"",
		"placeholder":true,
		"$s_###":
			{
			"abstractFolderType":"subfolder",
			"concreteFolderType":"shot_subfolder",
			"folderFunction":"grouping",
			"folderConcreteFunction":"",
			"placeholder":true,
			"Render":{"abstractFolderType":"branchfolder","concreteFolderType":"published_branchfolder", "folderFunction":"published_content","folderConcreteFunction":"","placeholder":false},
			"Frames":
				{
				"abstractFolderType":"leaffolder",
				"concreteFolderType":"wip_leaffolder",
				"folderFunction":"wip_content",
				"folderConcreteFunction":"",
				"placeholder":false,
				"CG":{"abstractFolderType":"leaffolder","concreteFolderType":"wip_leaffolder", "folderFunction":"wip_content", "folderConcreteFunction":"","placeholder":false},
				"Plate":{"abstractFolderType":"leaffolder","concreteFolderType":"wip_leaffolder", "folderFunction":"wip_content", "folderConcreteFunction":"","placeholder":false},
				"PreRender":{"abstractFolderType":"leaffolder","concreteFolderType":"wip_leaffolder", "folderFunction":"wip_content", "folderConcreteFunction":"","placeholder":false}
				}
			},
		"MASTER":
			{
			"abstractFolderType":"subfolder",
			"concreteFolderType":"master_subfolder",
			"folderFunction":"grouping",
			"folderConcreteFunction":"",
			"placeholder":false,
			"Render":{"abstractFolderType":"branchfolder","concreteFolderType":"published_branchfolder", "folderFunction":"published_content","folderConcreteFunction":"","placeholder":false},
			"Frames":
				{
				"abstractFolderType":"leaffolder",
				"concreteFolderType":"wip_leaffolder",
				"folderFunction":"wip_content",
				"folderConcreteFunction":"",
				"placeholder":false,
				"CG":{"abstractFolderType":"leaffolder","concreteFolderType":"wip_leaffolder", "folderFunction":"wip_content", "folderConcreteFunction":"","placeholder":false},
				"Plate":{"abstractFolderType":"leaffolder","concreteFolderType":"wip_leaffolder", "folderFunction":"wip_content", "folderConcreteFunction":"","placeholder":false},
				"PreRender":{"abstractFolderType":"leaffolder","concreteFolderType":"wip_leaffolder", "folderFunction":"wip_content", "folderConcreteFunction":"","placeholder":false}
				}
			}
		},
	"STORE":
		{
		"concreteFolderType":"technical_mainfolder",
		"abstractFolderType":"mainfolder",
		"folderFunction":"grouping",
		"folderConcreteFunction":"",
		"placeholder":false,
		"CFG":{"abstractFolderType":"subfolder","concreteFolderType":"technical_subfolder", "folderFunction":"published_content","folderConcreteFunction":"published_cfg","placeholder":false}
		}
	}
}