{
	"BaseFolder_Comp":
	{
	"concreteFolderType":"productionStep_rootfolder",
	"abstractFolderType":"rootFolder",
	"folderFunction":"grouping",
	"folderConcreteFunction":"",
	"placeholder":true,
	"SEQUENCES":
		{
		"concreteFolderType":"pipelineStage_mainfolder",
		"abstractFolderType":"mainFolder",
		"folderFunction":"grouping",
		"folderConcreteFunction":"",
		"placeholder":false,
		"$SEQ_##":
			{
			"abstractFolderType":"subfolder",
			"concreteFolderType":"sequence_subfolder",
			"folderFunction":"grouping",
			"folderConcreteFunction":"",
			"placeholder":true,
			"$s_###":
				{
				"abstractFolderType":"subfolder",
				"concreteFolderType":"shot_subfolder",
				"folderFunction":"grouping",
				"folderConcreteFunction":"",
				"placeholder":true,
				"Render":{"abstractFolderType":"mainfolder","concreteFolderType":"published_mainfolder", "folderFunction":"published_content","folderConcreteFunction":"","placeholder":false},
				"Assets":
					{
					"abstractFolderType":"mainfolder",
					"concreteFolderType":"assets_mainfolder",
					"folderFunction":"grouping",
					"folderConcreteFunction":"",
					"placeholder":false,
					"Geo":{"abstractFolderType":"branchfolder","concreteFolderType":"assetType_branchfolder", "folderFunction":"wip_content", "folderConcreteFunction":"","placeholder":false},
					"HDRI":{"abstractFolderType":"branchfolder","concreteFolderType":"assetType_branchfolder", "folderFunction":"wip_content", "folderConcreteFunction":"","placeholder":false},
					"Matchmove":{"abstractFolderType":"branchfolder","concreteFolderType":"assetType_branchfolder", "folderFunction":"wip_content", "folderConcreteFunction":"","placeholder":false},
					"Photogrammetry":{"abstractFolderType":"branchfolder","concreteFolderType":"assetType_branchfolder", "folderFunction":"wip_content", "folderConcreteFunction":"","placeholder":false},
					"Roto":{"abstractFolderType":"branchfolder","concreteFolderType":"assetType_branchfolder", "folderFunction":"wip_content", "folderConcreteFunction":"","placeholder":false}
					},
				"Frames":
					{
					"abstractFolderType":"mainfolder",
					"concreteFolderType":"frames_mainfolder",
					"folderFunction":"wip_content",
					"folderConcreteFunction":"",
					"placeholder":false,
					"CG":{"abstractFolderType":"branchfolder","concreteFolderType":"framesType_branchfolder", "folderFunction":"wip_content", "folderConcreteFunction":"","placeholder":false},
					"Footage":{"abstractFolderType":"branchfolder","concreteFolderType":"framesType_branchfolder", "folderFunction":"wip_content", "folderConcreteFunction":"","placeholder":false},
					"PreRender":{"abstractFolderType":"branchfolder","concreteFolderType":"framesType_branchfolder", "folderFunction":"wip_content", "folderConcreteFunction":"","placeholder":false}
					}
				},
			"LIBRARY":{"concreteFolderType":"library_subfolder","abstractFolderType":"subfolder","folderFunction":"grouping","folderConcreteFunction":"","placeholder":false},
			"CONTACT":
				{
				"concreteFolderType":"contact_subfolder",
				"abstractFolderType":"subfolder",
				"folderFunction":"grouping",
				"folderConcreteFunction":"",
				"placeholder":false,
				"Render":{"abstractFolderType":"mainfolder","concreteFolderType":"published_mainfolder", "folderFunction":"published_content","folderConcreteFunction":"","placeholder":false}
				},
			"MASTER":
				{
				"abstractFolderType":"subfolder",
				"concreteFolderType":"master_subfolder",
				"folderFunction":"grouping",
				"folderConcreteFunction":"",
				"placeholder":false,
				"Render":{"abstractFolderType":"mainfolder","concreteFolderType":"published_mainfolder", "folderFunction":"published_content","folderConcreteFunction":"","placeholder":false},
				"Assets":
					{
					"abstractFolderType":"mainfolder",
					"concreteFolderType":"assets_mainfolder",
					"folderFunction":"grouping",
					"folderConcreteFunction":"",
					"placeholder":false,
					"Geo":{"abstractFolderType":"branchfolder","concreteFolderType":"assetType_branchfolder", "folderFunction":"wip_content", "folderConcreteFunction":"","placeholder":false},
					"HDRI":{"abstractFolderType":"branchfolder","concreteFolderType":"assetType_branchfolder", "folderFunction":"wip_content", "folderConcreteFunction":"","placeholder":false},
					"Matchmove":{"abstractFolderType":"branchfolder","concreteFolderType":"assetType_branchfolder", "folderFunction":"wip_content", "folderConcreteFunction":"","placeholder":false},
					"Photogrammetry":{"abstractFolderType":"branchfolder","concreteFolderType":"assetType_branchfolder", "folderFunction":"wip_content", "folderConcreteFunction":"","placeholder":false},
					"Roto":{"abstractFolderType":"branchfolder","concreteFolderType":"assetType_branchfolder", "folderFunction":"wip_content", "folderConcreteFunction":"","placeholder":false}
					},
				"Frames":
					{
					"abstractFolderType":"mainfolder",
					"concreteFolderType":"frames_mainfolder",
					"folderFunction":"grouping",
					"folderConcreteFunction":"",
					"placeholder":false,
					"CG":{"abstractFolderType":"branchfolder","concreteFolderType":"framesType_branchfolder", "folderFunction":"wip_content", "folderConcreteFunction":"","placeholder":false},
					"Footage":{"abstractFolderType":"branchfolder","concreteFolderType":"framesType_branchfolder", "folderFunction":"wip_content", "folderConcreteFunction":"","placeholder":false},
					"PreRender":{"abstractFolderType":"branchfolder","concreteFolderType":"framesType_branchfolder", "folderFunction":"wip_content", "folderConcreteFunction":"","placeholder":false}
					}
				}
			}
		},
	"STORE":
		{
		"concreteFolderType":"technical_mainfolder",
		"abstractFolderType":"mainfolder",
		"folderFunction":"grouping",
		"folderConcreteFunction":"",
		"placeholder":false,
		"SHARED":{"abstractFolderType":"subfolder","concreteFolderType":"technical_subfolder", "folderFunction":"published_content","folderConcreteFunction":"published_sharedassets","placeholder":false},
		"GIZMOS":{"abstractFolderType":"subfolder","concreteFolderType":"technical_subfolder", "folderFunction":"published_content","folderConcreteFunction":"published_gizmos","placeholder":false},
		"CFG":{"abstractFolderType":"subfolder","concreteFolderType":"technical_subfolder", "folderFunction":"published_content","folderConcreteFunction":"published_cfg","placeholder":false}
		}
	}
}